{ "height":22,
 "layers":[
        {
         "draworder":"topdown",
         "height":0,
         "name":"Background",
         "objects":[
                {
                 "gid":4,
                 "height":700,
                 "id":32,
                 "name":"",
                 "rotation":0,
                 "type":"",
                 "visible":true,
                 "width":2389,
                 "x":0,
                 "y":700
                }],
         "opacity":1,
         "type":"objectgroup",
         "visible":true,
         "width":0,
         "x":0,
         "y":0
        }, 
        {
         "draworder":"topdown",
         "height":0,
         "name":"Foreground",
         "objects":[],
         "opacity":1,
         "type":"objectgroup",
         "visible":true,
         "width":0,
         "x":0,
         "y":0
        }, 
        {
         "draworder":"topdown",
         "height":0,
         "name":"Frame",
         "objects":[
                {
                 "gid":2,
                 "height":360,
                 "id":34,
                 "name":"",
                 "rotation":0,
                 "type":"",
                 "visible":false,
                 "width":500,
                 "x":442,
                 "y":492
                }, 
                {
                 "gid":3,
                 "height":401,
                 "id":35,
                 "name":"",
                 "rotation":0,
                 "type":"",
                 "visible":true,
                 "width":601,
                 "x":1344,
                 "y":611
                }, 
                {
                 "gid":18,
                 "height":192,
                 "id":55,
                 "name":"",
                 "rotation":0,
                 "type":"",
                 "visible":true,
                 "width":426,
                 "x":480,
                 "y":416
                }],
         "opacity":1,
         "type":"objectgroup",
         "visible":true,
         "width":0,
         "x":0,
         "y":0
        }, 
        {
         "draworder":"topdown",
         "height":0,
         "name":"Route",
         "objects":[
                {
                 "gid":5,
                 "height":716,
                 "id":33,
                 "name":"",
                 "rotation":0,
                 "type":"",
                 "visible":true,
                 "width":2432,
                 "x":0,
                 "y":704
                }, 
                {
                 "gid":1,
                 "height":104,
                 "id":38,
                 "name":"",
                 "rotation":0,
                 "type":"",
                 "visible":true,
                 "width":2464,
                 "x":-16,
                 "y":712
                }, 
                {
                 "gid":1,
                 "height":68,
                 "id":39,
                 "name":"",
                 "rotation":0,
                 "type":"",
                 "visible":true,
                 "width":392,
                 "x":512,
                 "y":641
                }],
         "opacity":1,
         "type":"objectgroup",
         "visible":true,
         "width":0,
         "x":0,
         "y":0
        }, 
        {
         "draworder":"topdown",
         "height":0,
         "name":"Palabras",
         "objects":[
                {
                 "gid":6,
                 "height":49,
                 "id":44,
                 "name":"mejor",
                 "rotation":0,
                 "type":"",
                 "visible":true,
                 "width":88,
                 "x":272,
                 "y":208
                }, 
                {
                 "gid":7,
                 "height":49,
                 "id":45,
                 "name":"inspiramos",
                 "rotation":0,
                 "type":"",
                 "visible":true,
                 "width":88,
                 "x":264,
                 "y":288
                }, 
                {
                 "gid":8,
                 "height":49,
                 "id":46,
                 "name":"sociedad",
                 "rotation":0,
                 "type":"",
                 "visible":true,
                 "width":88,
                 "x":344,
                 "y":256
                }, 
                {
                 "gid":9,
                 "height":49,
                 "id":47,
                 "name":"apropiaci\u00f3n",
                 "rotation":0,
                 "type":"",
                 "visible":true,
                 "width":88,
                 "x":248,
                 "y":368
                }, 
                {
                 "gid":12,
                 "height":49,
                 "id":48,
                 "name":"cient\u00edfico",
                 "rotation":0,
                 "type":"",
                 "visible":true,
                 "width":88,
                 "x":328,
                 "y":400
                }, 
                {
                 "gid":13,
                 "height":49,
                 "id":49,
                 "name":"interacci\u00f3n",
                 "rotation":0,
                 "type":"",
                 "visible":true,
                 "width":88,
                 "x":328,
                 "y":328
                }, 
                {
                 "gid":14,
                 "height":49,
                 "id":50,
                 "name":"construcci\u00f3n",
                 "rotation":0,
                 "type":"",
                 "visible":true,
                 "width":88,
                 "x":240,
                 "y":448
                }, 
                {
                 "gid":16,
                 "height":49,
                 "id":52,
                 "name":"transformamos",
                 "rotation":0,
                 "type":"",
                 "visible":true,
                 "width":88,
                 "x":320,
                 "y":480
                }, 
                {
                 "gid":17,
                 "height":49,
                 "id":53,
                 "name":"necesaria",
                 "rotation":0,
                 "type":"",
                 "visible":true,
                 "width":88,
                 "x":240,
                 "y":519
                }, 
                {
                 "gid":10,
                 "height":49,
                 "id":63,
                 "name":"a",
                 "rotation":0,
                 "type":"",
                 "visible":true,
                 "width":88,
                 "x":320,
                 "y":528
                }, 
                {
                 "gid":11,
                 "height":49,
                 "id":70,
                 "name":"del",
                 "rotation":0,
                 "type":"",
                 "visible":true,
                 "width":88,
                 "x":352,
                 "y":193
                }, 
                {
                 "gid":15,
                 "height":49,
                 "id":71,
                 "name":"de",
                 "rotation":0,
                 "type":"",
                 "visible":true,
                 "width":88,
                 "x":272,
                 "y":565
                }],
         "opacity":1,
         "type":"objectgroup",
         "visible":true,
         "width":0,
         "x":0,
         "y":0
        }, 
        {
         "draworder":"topdown",
         "height":0,
         "name":"Cuestionario",
         "objects":[
                {
                 "gid":1,
                 "height":21,
                 "id":56,
                 "name":"mejor",
                 "rotation":0,
                 "type":"",
                 "visible":true,
                 "width":80,
                 "x":602,
                 "y":412
                }, 
                {
                 "gid":1,
                 "height":21,
                 "id":60,
                 "name":"inspiramos",
                 "rotation":0,
                 "type":"",
                 "visible":true,
                 "width":168,
                 "x":482,
                 "y":244
                }, 
                {
                 "gid":1,
                 "height":21,
                 "id":61,
                 "name":"sociedad",
                 "rotation":0,
                 "type":"",
                 "visible":true,
                 "width":80,
                 "x":693,
                 "y":412
                }, 
                {
                 "gid":1,
                 "height":20,
                 "id":62,
                 "name":"apropiaci\u00f3n",
                 "rotation":0,
                 "type":"",
                 "visible":true,
                 "width":160,
                 "x":506,
                 "y":325
                }, 
                {
                 "gid":1,
                 "height":20,
                 "id":64,
                 "name":"cient\u00edfico",
                 "rotation":0,
                 "type":"",
                 "visible":true,
                 "width":104,
                 "x":639,
                 "y":353
                }, 
                {
                 "gid":1,
                 "height":20,
                 "id":65,
                 "name":"interacci\u00f3n",
                 "rotation":0,
                 "type":"",
                 "visible":true,
                 "width":120,
                 "x":517,
                 "y":298
                }, 
                {
                 "gid":1,
                 "height":20,
                 "id":66,
                 "name":"construcci\u00f3n",
                 "rotation":0,
                 "type":"",
                 "visible":true,
                 "width":96,
                 "x":805,
                 "y":384
                }, 
                {
                 "gid":1,
                 "height":20,
                 "id":67,
                 "name":"transformamos",
                 "rotation":0,
                 "type":"",
                 "visible":true,
                 "width":174,
                 "x":480,
                 "y":270
                }, 
                {
                 "gid":1,
                 "height":20,
                 "id":68,
                 "name":"necesaria",
                 "rotation":0,
                 "type":"",
                 "visible":true,
                 "width":120,
                 "x":574,
                 "y":380
                }, 
                {
                 "gid":1,
                 "height":20,
                 "id":69,
                 "name":"a",
                 "rotation":0,
                 "type":"",
                 "visible":true,
                 "width":64,
                 "x":832,
                 "y":298
                }, 
                {
                 "gid":1,
                 "height":20,
                 "id":72,
                 "name":"del",
                 "rotation":0,
                 "type":"",
                 "visible":true,
                 "width":128,
                 "x":768,
                 "y":325
                }, 
                {
                 "gid":1,
                 "height":20,
                 "id":73,
                 "name":"de",
                 "rotation":0,
                 "type":"",
                 "visible":true,
                 "width":72,
                 "x":480,
                 "y":412
                }],
         "opacity":1,
         "type":"objectgroup",
         "visible":true,
         "width":0,
         "x":0,
         "y":0
        }, 
        {
         "draworder":"topdown",
         "height":22,
         "name":"Exit",
         "objects":[
                {
                 "gid":19,
                 "height":112,
                 "id":74,
                 "name":"",
                 "rotation":0,
                 "type":"",
                 "visible":true,
                 "width":95,
                 "x":976,
                 "y":618
                }, 
                {
                 "gid":19,
                 "height":112,
                 "id":75,
                 "name":"",
                 "rotation":0,
                 "type":"",
                 "visible":true,
                 "width":95,
                 "x":1912,
                 "y":617
                }],
         "opacity":1,
         "type":"objectgroup",
         "visible":true,
         "width":76,
         "x":0,
         "y":0
        }],
 "nextobjectid":76,
 "orientation":"orthogonal",
 "renderorder":"right-down",
 "tileheight":32,
 "tilesets":[
        {
         "columns":1,
         "firstgid":1,
         "image":"..\/..\/..\/clear.png",
         "imageheight":32,
         "imagewidth":32,
         "margin":0,
         "name":"clear",
         "spacing":0,
         "tilecount":1,
         "tileheight":32,
         "tilewidth":32
        }, 
        {
         "columns":1,
         "firstgid":2,
         "image":"..\/..\/..\/minigames\/frame_completar.png",
         "imageheight":385,
         "imagewidth":530,
         "margin":0,
         "name":"frame_completar",
         "spacing":0,
         "tilecount":1,
         "tileheight":385,
         "tilewidth":530
        }, 
        {
         "columns":1,
         "firstgid":3,
         "image":"..\/..\/..\/minigames\/frame_ahorcado.png",
         "imageheight":481,
         "imagewidth":731,
         "margin":0,
         "name":"frame_ahorcado",
         "spacing":0,
         "tilecount":1,
         "tileheight":481,
         "tilewidth":731
        }, 
        {
         "columns":1,
         "firstgid":4,
         "image":"..\/..\/..\/minigames\/bg_mountain.png",
         "imageheight":700,
         "imagewidth":2389,
         "margin":0,
         "name":"bg_mountain",
         "spacing":0,
         "tilecount":1,
         "tileheight":700,
         "tilewidth":2389
        }, 
        {
         "columns":1,
         "firstgid":5,
         "image":"..\/..\/..\/minigames\/fg_mountain.png",
         "imageheight":700,
         "imagewidth":2389,
         "margin":0,
         "name":"fg_mountain",
         "spacing":0,
         "tilecount":1,
         "tileheight":700,
         "tilewidth":2389
        }, 
        {
         "columns":12,
         "firstgid":6,
         "image":"..\/..\/..\/sprites\/palabras.png",
         "imageheight":49,
         "imagewidth":1056,
         "margin":0,
         "name":"palabras",
         "spacing":0,
         "tilecount":12,
         "tileheight":49,
         "tilewidth":88
        }, 
        {
         "columns":1,
         "firstgid":18,
         "image":"..\/..\/..\/minigames\/completar.png",
         "imageheight":192,
         "imagewidth":426,
         "margin":0,
         "name":"completar",
         "spacing":0,
         "tilecount":1,
         "tileheight":192,
         "tilewidth":426
        }, 
        {
         "columns":1,
         "firstgid":19,
         "image":"..\/..\/..\/exit.png",
         "imageheight":179,
         "imagewidth":160,
         "margin":0,
         "name":"exit",
         "spacing":0,
         "tilecount":1,
         "tileheight":179,
         "tilewidth":160
        }],
 "tilewidth":32,
 "version":1,
 "width":76
}