{ "height":19,
 "layers":[
        {
         "draworder":"topdown",
         "height":0,
         "name":"Route",
         "objects":[
                {
                 "gid":2,
                 "height":616,
                 "id":19,
                 "name":"",
                 "rotation":0,
                 "type":"",
                 "visible":true,
                 "width":3493,
                 "x":0,
                 "y":616
                }],
         "opacity":1,
         "type":"objectgroup",
         "visible":true,
         "width":0,
         "x":0,
         "y":0
        }, 
        {
         "draworder":"topdown",
         "height":0,
         "name":"Platforms",
         "objects":[
                {
                 "gid":1,
                 "height":50,
                 "id":2,
                 "name":"",
                 "rotation":0,
                 "type":"",
                 "visible":true,
                 "width":3648,
                 "x":-16,
                 "y":610
                }, 
                {
                 "gid":1,
                 "height":32,
                 "id":3,
                 "name":"",
                 "rotation":0,
                 "type":"",
                 "visible":true,
                 "width":472,
                 "x":-2,
                 "y":582
                }, 
                {
                 "gid":1,
                 "height":16,
                 "id":4,
                 "name":"",
                 "rotation":0,
                 "type":"",
                 "visible":true,
                 "width":288,
                 "x":536,
                 "y":269
                }, 
                {
                 "gid":1,
                 "height":16,
                 "id":5,
                 "name":"",
                 "rotation":0,
                 "type":"",
                 "visible":true,
                 "width":144,
                 "x":792,
                 "y":147
                }, 
                {
                 "gid":1,
                 "height":16,
                 "id":6,
                 "name":"",
                 "rotation":0,
                 "type":"",
                 "visible":true,
                 "width":144,
                 "x":833,
                 "y":384
                }, 
                {
                 "gid":1,
                 "height":16,
                 "id":7,
                 "name":"",
                 "rotation":0,
                 "type":"",
                 "visible":true,
                 "width":144,
                 "x":633,
                 "y":503
                }, 
                {
                 "gid":1,
                 "height":16,
                 "id":8,
                 "name":"",
                 "rotation":0,
                 "type":"",
                 "visible":true,
                 "width":144,
                 "x":1040,
                 "y":507
                }, 
                {
                 "gid":1,
                 "height":16,
                 "id":9,
                 "name":"",
                 "rotation":0,
                 "type":"",
                 "visible":true,
                 "width":152,
                 "x":1088,
                 "y":270
                }, 
                {
                 "gid":1,
                 "height":16,
                 "id":10,
                 "name":"",
                 "rotation":0,
                 "type":"",
                 "visible":true,
                 "width":144,
                 "x":1327,
                 "y":93
                }, 
                {
                 "gid":1,
                 "height":16,
                 "id":11,
                 "name":"",
                 "rotation":0,
                 "type":"",
                 "visible":true,
                 "width":296,
                 "x":1560,
                 "y":270
                }, 
                {
                 "gid":1,
                 "height":16,
                 "id":12,
                 "name":"",
                 "rotation":0,
                 "type":"",
                 "visible":true,
                 "width":144,
                 "x":1821,
                 "y":147
                }, 
                {
                 "gid":1,
                 "height":16,
                 "id":13,
                 "name":"",
                 "rotation":0,
                 "type":"",
                 "visible":true,
                 "width":144,
                 "x":1864,
                 "y":383
                }, 
                {
                 "gid":1,
                 "height":16,
                 "id":14,
                 "name":"",
                 "rotation":0,
                 "type":"",
                 "visible":true,
                 "width":144,
                 "x":1657,
                 "y":502
                }, 
                {
                 "gid":1,
                 "height":16,
                 "id":15,
                 "name":"",
                 "rotation":0,
                 "type":"",
                 "visible":true,
                 "width":152,
                 "x":2063,
                 "y":507
                }, 
                {
                 "gid":1,
                 "height":16,
                 "id":16,
                 "name":"",
                 "rotation":0,
                 "type":"",
                 "visible":true,
                 "width":144,
                 "x":2119,
                 "y":270
                }, 
                {
                 "gid":1,
                 "height":16,
                 "id":17,
                 "name":"",
                 "rotation":0,
                 "type":"",
                 "visible":true,
                 "width":144,
                 "x":2355,
                 "y":93
                }],
         "opacity":1,
         "type":"objectgroup",
         "visible":true,
         "width":0,
         "x":0,
         "y":0
        }, 
        {
         "draworder":"topdown",
         "height":0,
         "name":"Start",
         "objects":[
                {
                 "gid":1,
                 "height":373,
                 "id":18,
                 "name":"",
                 "rotation":0,
                 "type":"",
                 "visible":true,
                 "width":176,
                 "x":59,
                 "y":540
                }],
         "opacity":1,
         "type":"objectgroup",
         "visible":true,
         "width":0,
         "x":0,
         "y":0
        }, 
        {
         "draworder":"topdown",
         "height":0,
         "name":"Exit",
         "objects":[
                {
                 "gid":1,
                 "height":376,
                 "id":20,
                 "name":"",
                 "rotation":0,
                 "type":"",
                 "visible":true,
                 "width":164,
                 "x":3286,
                 "y":557
                }, 
                {
                 "gid":9,
                 "height":408,
                 "id":49,
                 "name":"",
                 "rotation":0,
                 "type":"",
                 "visible":true,
                 "width":181,
                 "x":3272,
                 "y":560
                }, 
                {
                 "gid":10,
                 "height":455,
                 "id":51,
                 "name":"",
                 "rotation":0,
                 "type":"",
                 "visible":true,
                 "width":463,
                 "x":2760,
                 "y":520
                }, 
                {
                 "gid":11,
                 "height":253,
                 "id":52,
                 "name":"",
                 "rotation":0,
                 "type":"",
                 "visible":true,
                 "width":205,
                 "x":2503,
                 "y":560
                }],
         "opacity":1,
         "type":"objectgroup",
         "visible":true,
         "width":0,
         "x":0,
         "y":0
        }, 
        {
         "draworder":"topdown",
         "height":0,
         "name":"Obstacles",
         "objects":[
                {
                 "gid":3,
                 "height":87,
                 "id":21,
                 "name":"box",
                 "rotation":0,
                 "type":"",
                 "visible":true,
                 "width":89,
                 "x":683,
                 "y":490
                }, 
                {
                 "gid":3,
                 "height":87,
                 "id":22,
                 "name":"box",
                 "rotation":0,
                 "type":"",
                 "visible":true,
                 "width":89,
                 "x":886,
                 "y":368
                }, 
                {
                 "gid":3,
                 "height":87,
                 "id":23,
                 "name":"box",
                 "rotation":0,
                 "type":"",
                 "visible":true,
                 "width":89,
                 "x":1072,
                 "y":255
                }, 
                {
                 "gid":3,
                 "height":87,
                 "id":24,
                 "name":"box",
                 "rotation":0,
                 "type":"",
                 "visible":true,
                 "width":89,
                 "x":1072,
                 "y":489
                }, 
                {
                 "gid":3,
                 "height":87,
                 "id":25,
                 "name":"box",
                 "rotation":0,
                 "type":"",
                 "visible":true,
                 "width":89,
                 "x":1296,
                 "y":559
                }, 
                {
                 "gid":3,
                 "height":87,
                 "id":26,
                 "name":"box",
                 "rotation":0,
                 "type":"",
                 "visible":true,
                 "width":89,
                 "x":1384,
                 "y":559
                }, 
                {
                 "gid":3,
                 "height":87,
                 "id":27,
                 "name":"box",
                 "rotation":0,
                 "type":"",
                 "visible":true,
                 "width":89,
                 "x":1336,
                 "y":472
                }, 
                {
                 "gid":3,
                 "height":87,
                 "id":28,
                 "name":"box",
                 "rotation":0,
                 "type":"",
                 "visible":true,
                 "width":89,
                 "x":1724,
                 "y":490
                }, 
                {
                 "gid":3,
                 "height":87,
                 "id":29,
                 "name":"box",
                 "rotation":0,
                 "type":"",
                 "visible":true,
                 "width":89,
                 "x":1724,
                 "y":403
                }, 
                {
                 "gid":3,
                 "height":87,
                 "id":30,
                 "name":"box",
                 "rotation":0,
                 "type":"",
                 "visible":true,
                 "width":89,
                 "x":1596,
                 "y":253
                }, 
                {
                 "gid":3,
                 "height":87,
                 "id":31,
                 "name":"box",
                 "rotation":0,
                 "type":"",
                 "visible":true,
                 "width":89,
                 "x":2127,
                 "y":490
                }, 
                {
                 "gid":3,
                 "height":87,
                 "id":32,
                 "name":"box",
                 "rotation":0,
                 "type":"",
                 "visible":true,
                 "width":89,
                 "x":2128,
                 "y":403
                }],
         "opacity":1,
         "type":"objectgroup",
         "visible":true,
         "width":0,
         "x":0,
         "y":0
        }, 
        {
         "draworder":"topdown",
         "height":0,
         "name":"Objects",
         "objects":[
                {
                 "gid":8,
                 "height":64,
                 "id":43,
                 "name":"turtle",
                 "rotation":0,
                 "type":"",
                 "visible":true,
                 "width":117,
                 "x":2232,
                 "y":552
                }, 
                {
                 "gid":7,
                 "height":80,
                 "id":44,
                 "name":"planet",
                 "rotation":0,
                 "type":"",
                 "visible":true,
                 "width":141,
                 "x":2120,
                 "y":264
                }, 
                {
                 "gid":6,
                 "height":72,
                 "id":45,
                 "name":"microphone",
                 "rotation":0,
                 "type":"",
                 "visible":true,
                 "width":120,
                 "x":1840,
                 "y":128
                }, 
                {
                 "gid":5,
                 "height":56,
                 "id":46,
                 "name":"brain",
                 "rotation":0,
                 "type":"",
                 "visible":true,
                 "width":93,
                 "x":1168,
                 "y":256
                }, 
                {
                 "gid":4,
                 "height":56,
                 "id":47,
                 "name":"rubik",
                 "rotation":0,
                 "type":"",
                 "visible":true,
                 "width":93,
                 "x":616,
                 "y":248
                }],
         "opacity":1,
         "type":"objectgroup",
         "visible":true,
         "width":0,
         "x":0,
         "y":0
        }],
 "nextobjectid":53,
 "orientation":"orthogonal",
 "renderorder":"right-down",
 "tileheight":32,
 "tilesets":[
        {
         "columns":1,
         "firstgid":1,
         "image":"..\/..\/..\/clear.png",
         "imageheight":32,
         "imagewidth":32,
         "margin":0,
         "name":"clear",
         "spacing":0,
         "tilecount":1,
         "tileheight":32,
         "tilewidth":32
        }, 
        {
         "columns":1,
         "firstgid":2,
         "image":"bg.png",
         "imageheight":600,
         "imagewidth":3493,
         "margin":0,
         "name":"map",
         "spacing":0,
         "tilecount":1,
         "tileheight":600,
         "tilewidth":3493
        }, 
        {
         "columns":1,
         "firstgid":3,
         "image":"..\/..\/..\/box.png",
         "imageheight":87,
         "imagewidth":89,
         "margin":0,
         "name":"box",
         "spacing":0,
         "tilecount":1,
         "tileheight":87,
         "tilewidth":89
        }, 
        {
         "columns":5,
         "firstgid":4,
         "image":"..\/..\/..\/sprites\/objects_w2.png",
         "imageheight":102,
         "imagewidth":905,
         "margin":0,
         "name":"objetos_2",
         "spacing":0,
         "tilecount":5,
         "tileheight":102,
         "tilewidth":181
        }, 
        {
         "columns":1,
         "firstgid":9,
         "image":"..\/..\/..\/exit_door.png",
         "imageheight":408,
         "imagewidth":182,
         "margin":0,
         "name":"exit_door",
         "spacing":0,
         "tilecount":1,
         "tileheight":408,
         "tilewidth":181
        }, 
        {
         "columns":1,
         "firstgid":10,
         "image":"..\/..\/..\/end_frame_w2.png",
         "imageheight":455,
         "imagewidth":463,
         "margin":0,
         "name":"end_frame_w2",
         "spacing":0,
         "tilecount":1,
         "tileheight":455,
         "tilewidth":463
        }, 
        {
         "columns":1,
         "firstgid":11,
         "image":"..\/..\/..\/fortune_wheel.png",
         "imageheight":253,
         "imagewidth":205,
         "margin":0,
         "name":"fortune_wheel",
         "spacing":0,
         "tilecount":1,
         "tileheight":253,
         "tilewidth":205
        }],
 "tilewidth":32,
 "version":1,
 "width":109
}